[
 {
  "allow_on_submit": 0, 
  "bold": 0, 
  "collapsible": 0, 
  "collapsible_depends_on": null, 
  "default": null, 
  "depends_on": null, 
  "description": null, 
  "docstatus": 0, 
  "doctype": "Custom Field", 
  "dt": "Print Settings", 
  "fieldname": "compact_item_print", 
  "fieldtype": "Check", 
  "hidden": 0, 
  "ignore_user_permissions": 0, 
  "ignore_xss_filter": 0, 
  "in_list_view": 0, 
  "in_standard_filter": 0, 
  "insert_after": "with_letterhead", 
  "label": "Compact Item Print", 
  "modified": "2017-03-29 12:56:19.014985", 
  "name": "Print Settings-compact_item_print", 
  "no_copy": 0, 
  "options": null, 
  "permlevel": 0, 
  "precision": "", 
  "print_hide": 0, 
  "print_hide_if_no_value": 0, 
  "print_width": null, 
  "read_only": 0, 
  "report_hide": 0, 
  "reqd": 0, 
  "search_index": 0, 
  "unique": 0, 
  "width": null
 }, 
 {
  "allow_on_submit": 0, 
  "bold": 0, 
  "collapsible": 0, 
  "collapsible_depends_on": null, 
  "default": null, 
  "depends_on": null, 
  "description": null, 
  "docstatus": 0, 
  "doctype": "Custom Field", 
  "dt": "Customer", 
  "fieldname": "first_name", 
  "fieldtype": "Data", 
  "hidden": 0, 
  "ignore_user_permissions": 0, 
  "ignore_xss_filter": 0, 
  "in_list_view": 0, 
  "in_standard_filter": 0, 
  "insert_after": "naming_series", 
  "label": "First Name", 
  "modified": "2017-04-24 15:28:29.655803", 
  "name": "Customer-first_name", 
  "no_copy": 0, 
  "options": null, 
  "permlevel": 0, 
  "precision": "", 
  "print_hide": 0, 
  "print_hide_if_no_value": 0, 
  "print_width": null, 
  "read_only": 0, 
  "report_hide": 0, 
  "reqd": 0, 
  "search_index": 0, 
  "unique": 0, 
  "width": null
 }, 
 {
  "allow_on_submit": 0, 
  "bold": 0, 
  "collapsible": 0, 
  "collapsible_depends_on": null, 
  "default": null, 
  "depends_on": null, 
  "description": null, 
  "docstatus": 0, 
  "doctype": "Custom Field", 
  "dt": "Customer", 
  "fieldname": "last_name", 
  "fieldtype": "Data", 
  "hidden": 0, 
  "ignore_user_permissions": 0, 
  "ignore_xss_filter": 0, 
  "in_list_view": 0, 
  "in_standard_filter": 0, 
  "insert_after": "first_name", 
  "label": "Last Name", 
  "modified": "2017-04-24 15:28:30.064412", 
  "name": "Customer-last_name", 
  "no_copy": 0, 
  "options": null, 
  "permlevel": 0, 
  "precision": "", 
  "print_hide": 0, 
  "print_hide_if_no_value": 0, 
  "print_width": null, 
  "read_only": 0, 
  "report_hide": 0, 
  "reqd": 0, 
  "search_index": 0, 
  "unique": 0, 
  "width": null
 }, 
 {
  "allow_on_submit": 0, 
  "bold": 0, 
  "collapsible": 0, 
  "collapsible_depends_on": null, 
  "default": null, 
  "depends_on": null, 
  "description": null, 
  "docstatus": 0, 
  "doctype": "Custom Field", 
  "dt": "Contact", 
  "fieldname": "full_name", 
  "fieldtype": "Data", 
  "hidden": 0, 
  "ignore_user_permissions": 0, 
  "ignore_xss_filter": 0, 
  "in_list_view": 0, 
  "in_standard_filter": 0, 
  "insert_after": "last_name", 
  "label": "Full Name", 
  "modified": "2017-04-24 15:29:56.003306", 
  "name": "Contact-full_name", 
  "no_copy": 0, 
  "options": null, 
  "permlevel": 0, 
  "precision": "", 
  "print_hide": 0, 
  "print_hide_if_no_value": 0, 
  "print_width": null, 
  "read_only": 1, 
  "report_hide": 0, 
  "reqd": 0, 
  "search_index": 0, 
  "unique": 0, 
  "width": null
 }
]